<?xml version="1.0" encoding="UTF-8"?>
<session version="1.0">
<refactoring comment="Delete resource &apos;TopdanmarkPOC&apos;" deleteContents="false" description="Delete resource &apos;TopdanmarkPOC&apos;" element1="/TopdanmarkPOC" flags="7" id="org.eclipse.ltk.core.refactoring.delete.resources" resources="1" stamp="1428572883087"/>
</session>